tidytuesday-exercise – Hope Grismer’s Data Analysis Portfolio
…
# View the resulting tidy data
print(gini_long)

# A tibble: 52 × 2
   state                gini_estimate
   <chr>                        <dbl>
 1 Alabama                      0.477
 2 Alaska                       0.449
 3 Arizona                      0.465
 4 Arkansas                     0.474
 5 California                   0.487
 6 Colorado                     0.458
 7 Connecticut                  0.495
 8 Delaware                     0.456
 9 District of Columbia         0.516
10 Florida                      0.483
# ℹ 42 more rows
…
